{
    "description": "coils used for the metal detection matrix",
    "__description": "# add here some useful information to identify the use of the sensor",
    "sensor": "Insp_coils",
    "__sensor": "# the UNIQUE name that allows to identify the sensor. ex: can be the same as the filename.",
    "cu_w": 150e-6, 
    "__cu_w": "# width of the copper tracks",
    "cu_d": 150e-6,
    "__cu_d": "# clearence among the copper tracks",
    "cu_t": 35e-6,
    "__cu_t": "# thickness of the copper tracks",
    "layers": 2,
    "__layers": "# number of layers",
    "layers_d": 0.232e-3,
    "__layers_d": "# clearence among the layers on the stack",
    "line_w" : 150e-6,
    "__line_w": "# track width of the line used to route the coil to the connector (can be a rough estimation) ",
    "line_d" : 150e-6,
    "__line_d": "# clearence among the lines used to route the coil to the connector (can be a rough estimation)",
    "line_length" : 5e-2,
    "__line_length": "# length of the lines used to route the coil to the connector (can be a rough estimation)",
    "epsilon_r" : 2.5,
    "__epsilon_r": "# dielectric constant of the FR4/or PCB bulk material",
    "geometry" : "rectangular",
    "__geometry": "# choice of the coil geometry, you can selecte 'spiral' or 'rectangular' ",
    "n" : 27,
    "__n": "# number of turns of the coil",
    "a" : 17e-3,
    "__a": "# only for rectangular geometry: length of the side 1 of the rectangle",
    "b" : 17e-3,
    "__b": "# only for rectangular geometry: length of the side 2 of the rectangle",
    "r" : 0,
    "__r": "# only for spiral geometry: outer radius",
    "exp_L":0,
    "__exp_L": "# experimental measurement of the inductance. put 0 if not available.",
    "exp_R":0,
    "__exp_R": "# experimental measurement of the resistance. put 0 if not available.",
    "exp_C":0,
    "__exp_C": "# experimental measurement of the self-capacitance. put 0 if not available."
}