{
    "_notes": "pancake coil used to build up the integrated concept VB46 - coil 1 (closest)",
    "sensor": "VB46R_D",
    "cu_w": 200e-6, 
    "cu_d": 4700e-6,
    "cu_t": 35e-6,
    "layers": 2,
    "layers_d": 1.6e-3,
    "layers_skewing":false,
    "line_w" : 250e-6,
    "line_d" : 250e-6,
    "line_length" : 5e-2,
    "epsilon_r" : 4.7,
    "geometry" : "rectangular",
    "n" : 12,
    "a" : 120e-3,
    "b" : 380e-3,
    "r" : 0,
    "exp_L":140e-6,
    "exp_R":0,
    "exp_C":0
}