{
    "_notes": "pancake coil used for development",
    "sensor": "SMD_VB46R_A",
    "cu_w": 200e-6, 
    "cu_d": 1500e-6,
    "cu_t": 35e-6,
    "layers": 2,
    "layers_d": 1.6e-3,
    "layers_skewing":true,
    "line_w" : 250e-6,
    "line_d" : 250e-6,
    "line_length" : 5e-2,
    "epsilon_r" : 4.7,
    "geometry" : "rectangular",
    "n" : 10,
    "a" : 37e-3,
    "b" : 310e-3,
    "r" : 0,
    "exp_L":0,
    "exp_R":0.0,
    "exp_C":0
}